<svg width="20" height="21" viewBox="0 0 20 21" fill="none" xmlns="http://www.w3.org/2000/svg">
<path d="M18.7374 11.2878C19.2769 10.7483 19.2769 9.87374 18.7374 9.33431L9.94691 0.543791C9.40748 0.00436077 8.53289 0.00436061 7.99346 0.543791C7.45403 1.08322 7.45403 1.95781 7.99346 2.49724L15.8073 10.311L7.99346 18.1248C7.45403 18.6643 7.45403 19.5389 7.99346 20.0783C8.53289 20.6177 9.40748 20.6177 9.94691 20.0783L18.7374 11.2878ZM0.713867 11.6923L17.7607 11.6923L17.7607 8.92974L0.713867 8.92974L0.713867 11.6923Z" fill="#5CBAE1"/>
</svg>
